{
  "root": "libs/dashboard/features/dashboard",
  "sourceRoot": "libs/dashboard/features/dashboard/src",
  "projectType": "library",
  "tags": [],
  "targets": {
    "lint": {
      "executor": "@nrwl/linter:eslint",
      "outputs": ["{options.outputFile}"],
      "options": {
        "lintFilePatterns": ["libs/dashboard/features/dashboard/**/*.{ts,tsx,js,jsx}"]
      }
    },
    "test": {
      "executor": "@nrwl/jest:jest",
      "outputs": ["coverage/libs/dashboard/features/dashboard"],
      "options": {
        "jestConfig": "libs/dashboard/features/dashboard/jest.config.ts",
        "passWithNoTests": true
      }
    }
  }
}
