{
  "root": "libs/api/features",
  "sourceRoot": "libs/api/features/src",
  "targets": {
    "lint": {
      "executor": "@nrwl/linter:eslint",
      "outputs": ["{options.outputFile}"],
      "options": {
        "lintFilePatterns": ["libs/api/features/**/*.ts"]
      }
    },
    "test": {
      "executor": "@nrwl/jest:jest",
      "outputs": ["coverage/libs/api/features"],
      "options": {
        "jestConfig": "libs/api/features/jest.config.js",
        "passWithNoTests": true
      }
    }
  },
  "tags": []
}
